…
Invalid PDF files outside quarantine:
# A tibble: 0 × 17
# ℹ 17 variables: source_folder_role <chr>, source_folder_path <chr>, full_path <chr>, relative_path <chr>, file_name <chr>,
#   extension <chr>, size_bytes <dbl>, size_kb <dbl>, modified_time <chr>, excluded_from_check <lgl>, exclusion_reason <chr>,
#   pdf_signature_valid <lgl>, validation_status <chr>, ascii_header <chr>, hex_header <chr>, publication_blocking <lgl>,
#   recommended_action <chr>

Excluded quarantine PDF files:
# A tibble: 24 × 3
   relative_path                                                                                      size_kb exclusion_reason
   <chr>                                                                                                <dbl> <chr>           
 1 docs/regulatory_framework/failed_downloads/fed_public_results_DFAST_2026_dictionary_FED_PUBLIC_RE…    79.3 Inside failed_d…
 2 docs/regulatory_framework/failed_downloads/fed_2026_detailed_nine_quarter_paths_dictionary_FED_9Q…    79.3 Inside failed_d…
 3 docs/regulatory_framework/failed_downloads/fed_large_bank_capital_requirements_20250627_FED_LARGE…    79.3 Inside failed_d…
 4 docs/regulatory_framework/failed_downloads/fed_public_results_DFAST_2026_dictionary_attempt_01_FE…    79.3 Inside failed_d…
 5 docs/regulatory_framework/failed_downloads/fed_public_results_DFAST_2026_dictionary_attempt_02_FE…    79.3 Inside failed_d…
 6 docs/regulatory_framework/failed_downloads/fed_stress_test_results_data_dictionary_attempt_03_FED…    79.3 Inside failed_d…
 7 docs/regulatory_framework/failed_downloads/fed_2026_detailed_nine_quarter_paths_dictionary_attemp…    79.3 Inside failed_d…
 8 docs/regulatory_framework/failed_downloads/fed_detailed_nine_quarter_path_data_dictionary_attempt…    79.3 Inside failed_d…
 9 docs/regulatory_framework/failed_downloads/fed_large_bank_capital_requirements_20250930_FED_LARGE…    79.3 Inside failed_d…
10 docs/regulatory_framework/failed_downloads/invalid_or_unopenable_pdf/RAW_FED_RESULTS__fed_2026_De…    79.3 Inside failed_d…
# ℹ 14 more rows
# ℹ Use `print(n = ...)` to see more rows
…
