…
Extension summary primary:
# A tibble: 3 × 4
  extension files total_size_bytes non_empty_files
  <chr>     <int>            <dbl>           <int>
1 pdf          23         17939382              23
2 md            7             3162               7
3 html          6           692803               6

PDF files all locations:
# A tibble: 27 × 14
   file_path                    file_name relative_directory extension exists size_bytes modified_at search_zone document_role
   <chr>                        <chr>     <chr>              <chr>     <lgl>       <dbl> <chr>       <chr>       <chr>        
 1 docs/regulatory_framework/s… fed_2026… docs/regulatory_f… pdf       TRUE        81196 2026-06-29… Primary re… Official or …
 2 docs/regulatory_framework/s… fed_2026… docs/regulatory_f… pdf       TRUE        81196 2026-06-29… Primary re… Official or …
 3 docs/regulatory_framework/s… fed_2026… docs/regulatory_f… pdf       TRUE      3274121 2026-06-29… Primary re… Official or …
 4 docs/regulatory_framework/s… fed_2026… docs/regulatory_f… pdf       TRUE        81196 2026-06-29… Primary re… Official or …
 5 docs/regulatory_framework/s… fed_2026… docs/regulatory_f… pdf       TRUE      2099540 2026-06-29… Primary re… Official or …
 6 docs/regulatory_framework/s… fed_2026… docs/regulatory_f… pdf       TRUE      1862605 2026-06-29… Primary re… Official or …
 7 docs/regulatory_framework/s… fed_2026… docs/regulatory_f… pdf       TRUE       938697 2026-06-29… Primary re… Official or …
 8 docs/regulatory_framework/s… fed_2026… docs/regulatory_f… pdf       TRUE      2957856 2026-06-29… Primary re… Official or …
 9 docs/regulatory_framework/s… fed_2026… docs/regulatory_f… pdf       TRUE      2280184 2026-06-29… Primary re… Official or …
10 docs/regulatory_framework/s… fed_2026… docs/regulatory_f… pdf       TRUE        81196 2026-06-29… Primary re… Official or …
# ℹ 17 more rows
# ℹ 5 more variables: regulatory_relevant <lgl>, non_empty <lgl>, likely_official_download <lgl>, likely_internal_note <lgl>,
#   likely_inventory <lgl>
# ℹ Use `print(n = ...)` to see more rows
…
