…
Critical file check summary:
# A tibble: 5 × 3
  category            status               n
  <chr>               <chr>            <int>
1 Execution logs      OK                   5
2 Final documents     OK                   3
3 Final workbooks     OK                   5
4 Processed datasets  OK                   6
5 Repository metadata OPTIONAL_PRESENT     4

Script presence check:
# A tibble: 21 × 3
   expected_script                                      exists status
   <chr>                                                <lgl>  <chr> 
 1 01_data_availability_audit.R                         TRUE   OK    
 2 02_regulatory_documentation_and_raw_data_ingestion.R TRUE   OK    
 3 02b_download_regulatory_documentation.R              TRUE   OK    
 4 02c_fix_missing_regulatory_documentation.R           TRUE   OK    
 5 03_clean_federal_reserve_dfast_results.R             TRUE   OK    
 6 04_structure_fed_macro_scenarios.R                   TRUE   OK    
 7 05_build_dfast_benchmark_dataset.R                   TRUE   OK    
 8 06_capital_losses_transmission_layer.R               TRUE   OK    
 9 07_exploratory_analysis_transmission_layer.R         TRUE   OK    
10 08_build_modelling_sample.R                          TRUE   OK    
# ℹ 11 more rows
# ℹ Use `print(n = ...)` to see more rows
…
